{
  "$schema": "https://json.schemastore.org/nest-cli",
  "collection": "@nestjs/schematics",
  "sourceRoot": "apps/initial-project/src",
  "compilerOptions": {
    "deleteOutDir": true,
    "webpack": true,
    "tsConfigPath": "apps/initial-project/tsconfig.app.json"
  },
  "monorepo": true,
  "root": "apps/initial-project",
  "projects": {
    "initial-project": {
      "type": "application",
      "root": "apps/initial-project",
      "entryFile": "main",
      "sourceRoot": "apps/initial-project/src",
      "compilerOptions": {
        "tsConfigPath": "apps/initial-project/tsconfig.app.json"
      }
    },
    "second-project": {
      "type": "application",
      "root": "apps/second-project",
      "entryFile": "main",
      "sourceRoot": "apps/second-project/src",
      "compilerOptions": {
        "tsConfigPath": "apps/second-project/tsconfig.app.json"
      }
    }
  }
}